{
  "elements": {
    "12": {
      "asyncExec": false,
      "exec_immediately": true,
      "is_parser_blocking": false,
      "run_scope_id": 8,
      "tag": "script"
    },
    "15": {
      "asyncExec": false,
      "exec_immediately": true,
      "is_parser_blocking": false,
      "run_scope_id": 11,
      "tag": "script"
    },
    "19": {
      "asyncExec": false,
      "exec_immediately": true,
      "is_parser_blocking": false,
      "run_scope_id": 16,
      "tag": "script"
    },
    "29": {
      "tag": "body"
    },
    "30": {
      "asyncExec": false,
      "exec_immediately": true,
      "is_parser_blocking": false,
      "run_scope_id": 19,
      "tag": "script"
    },
    "167": {
      "tag": "img"
    },
    "258": {
      "asyncExec": false,
      "exec_immediately": true,
      "is_parser_blocking": false,
      "run_scope_id": 32,
      "tag": "script"
    },
    "270": {
      "asyncExec": false,
      "exec_immediately": true,
      "is_parser_blocking": false,
      "run_scope_id": 45,
      "tag": "script"
    },
    "272": {
      "tag": "img"
    }
  },
  "exec_scopes": {
    "8": [
      "  /* [68.4, 68.64] scopeStart= 1476569720775.690918 type= ScriptControllerRunScriptScope */",
      "  __msleep(0.24);"
    ],
    "11": [
      "  /* [68.99, 69.25] scopeStart= 1476569720776.281982 type= ScriptControllerRunScriptScope */",
      "  __msleep(0.26);"
    ],
    "16": [
      "  /* [74.57, 81.86] scopeStart= 1476569720781.862061 type= ScriptControllerRunScriptScope */",
      "  __msleep(7.29);"
    ],
    "19": [
      "  /* [82.5, 86.15] scopeStart= 1476569720789.789062 type= ScriptControllerRunScriptScope */",
      "  __msleep(3.65);"
    ],
    "32": [
      "  /* [90.38, 127.1] scopeStart= 1476569720797.668945 type= ScriptControllerRunScriptScope */",
      "  __msleep(36.72);"
    ],
    "45": [
      "  /* [128.22, 128.32] scopeStart= 1476569720835.510986 type= ScriptControllerRunScriptScope */",
      "  __msleep(0.10);"
    ],
    "51": [
      "  /* [128.63, 128.71] scopeStart= 1476569720835.916016 type= RenderTreeUpdateScope */",
      "  __msleep(0.08);"
    ],
    "55": [
      "  /* [131.27, 131.29] scopeStart= 1476569720838.556152 type= DOMReadyStateChangeEventScope */",
      "  __msleep(0.02);"
    ],
    "56": [
      "  /* [131.33, 132.91] scopeStart= 1476569720838.617920 type= DocOnLoadEventScope */",
      "  __msleep(1.53);",
      "  start_timer(1);",
      "  __msleep(0.05);"
    ],
    "63": [
      "  /* [134.2, 136.87] scopeStart= 1476569720841.487793 type= DOMTimerFiredScope */",
      "  __msleep(1.81);",
      "  add_elem(272);",
      "  __msleep(0.22);",
      "  set_elem_res(272, 4);",
      "  __msleep(0.12);",
      "  start_timer(2);",
      "  __msleep(0.52);"
    ],
    "67": [
      "  /* [138.06, 141.03] scopeStart= 1476569720845.347900 type= DOMTimerFiredScope */",
      "  __msleep(2.06);",
      "  send_xhr(273);",
      "  __msleep(0.60);",
      "  __msleep(0.18);",
      "  __msleep(0.07);",
      "  start_timer(3);",
      "  __msleep(0.06);"
    ],
    "72": [
      "  /* [142.11, 142.31] scopeStart= 1476569720849.401855 type= DOMTimerFiredScope */",
      "  __msleep(0.15);",
      "  sched_render_update_scope(75);",
      "  __msleep(0.05);"
    ],
    "75": [
      "  /* [144.64, 144.73] scopeStart= 1476569720851.932129 type= RenderTreeUpdateScope */",
      "  __msleep(0.09);"
    ],
    "85": [
      "  /* [146.36, 146.44] scopeStart= 1476569720853.645996 type= RenderTreeUpdateScope */",
      "  __msleep(0.08);"
    ],
    "86": [
      "  /* [146.54, 146.6] scopeStart= 1476569720853.826904 type= RenderTreeUpdateScope */",
      "  __msleep(0.06);"
    ],
    "90": [
      "  /* [149.64, 149.65] scopeStart= 1476569720856.930908 type= DOMReadyStateChangeEventScope */",
      "  __msleep(0.01);"
    ]
  },
  "initial_render_tree_update_scope_id": 0,
  "main_html": {
    "element_byte_offsets": [
      [
        93,
        12
      ],
      [
        317,
        15
      ],
      [
        15732,
        19
      ],
      [
        15910,
        29
      ],
      [
        16221,
        30
      ],
      [
        18525,
        167
      ],
      [
        27686,
        258
      ],
      [
        34099,
        270
      ]
    ],
    "event_handling_scopes": [
      [
        "load",
        56
      ],
      [
        "readystatechange_complete",
        55
      ]
    ]
  },
  "orig_used_hostnames": [
    "www.bing.com"
  ],
  "resources": {
    "1": {
      "part_of_page_loaded_check": false,
      "req_chain": [
        {
          "host": "www.bing.com",
          "method": "GET",
          "port": 80,
          "priority": 4,
          "req_total_size": 334,
          "resp_body_size": 34102,
          "resp_meta_size": 200
        }
      ],
      "type": "main"
    },
    "3": {
      "part_of_page_loaded_check": true,
      "req_chain": [
        {
          "host": "www.bing.com",
          "method": "GET",
          "port": 80,
          "priority": 0,
          "req_total_size": 604,
          "resp_body_size": 6700,
          "resp_meta_size": 200
        }
      ],
      "type": "img"
    },
    "4": {
      "part_of_page_loaded_check": true,
      "req_chain": [
        {
          "host": "www.bing.com",
          "method": "GET",
          "port": 80,
          "priority": 0,
          "req_total_size": 873,
          "resp_body_size": 39,
          "resp_meta_size": 200
        }
      ],
      "type": "img"
    },
    "5": {
      "part_of_page_loaded_check": false,
      "req_chain": [
        {
          "host": "www.bing.com",
          "method": "POST",
          "port": 80,
          "priority": 2,
          "req_total_size": 998,
          "resp_body_size": 89,
          "resp_meta_size": 200
        }
      ],
      "type": "raw"
    }
  },
  "timers": {
    "1": {
      "fired_scope_ids": [
        63
      ],
      "interval_ms": 1,
      "singleShot": true
    },
    "2": {
      "fired_scope_ids": [
        67
      ],
      "interval_ms": 1,
      "singleShot": true
    },
    "3": {
      "fired_scope_ids": [
        72
      ],
      "interval_ms": 1,
      "singleShot": true
    }
  },
  "xhrs": {
    "273": {
      "event_handling_scopes": [
        [
          "readystatechange_DONE",
          90
        ]
      ],
      "res_chain": [
        5
      ]
    }
  }
}